module thardians

go 1.23

require (
	github.com/charmbracelet/bubbles v0.20.0
	github.com/charmbracelet/bubbletea v1.2.4
	github.com/charmbracelet/lipgloss v1.0.0
	github.com/charmbracelet/log v0.4.0
	github.com/charmbracelet/ssh v0.0.0-20240725163421-eb71b85b27aa
	github.com/charmbracelet/wish v1.4.3
	github.com/charmbracelet/x/exp/teatest v0.0.0-20250117142827-dd310ffa7553
	github.com/muesli/termenv v0.15.3-0.20240509142007-81b8f94111d5
	golang.org/x/exp v0.0.0-20240823005443-9b4947da3948
)

require (
	github.com/anmitsu/go-shlex v0.0.0-20200514113438-38f4b401e2be // indirect
	github.com/atotto/clipboard v0.1.4 // indirect
	github.com/aymanbagabas/go-osc52/v2 v2.0.1 // indirect
	github.com/aymanbagabas/go-udiff v0.2.0 // indirect
	github.com/charmbracelet/keygen v0.5.1 // indirect
	github.com/charmbracelet/x/ansi v0.4.5 // indirect
	github.com/charmbracelet/x/conpty v0.1.0 // indirect
	github.com/charmbracelet/x/errors v0.0.0-20240508181413-e8d8b6e2de86 // indirect
	github.com/charmbracelet/x/exp/golden v0.0.0-20240815200342-61de596daa2b // indirect
	github.com/charmbracelet/x/input v0.2.0 // indirect
	github.com/charmbracelet/x/term v0.2.1 // indirect
	github.com/charmbracelet/x/termios v0.1.0 // indirect
	github.com/creack/pty v1.1.21 // indirect
	github.com/erikgeiser/coninput v0.0.0-20211004153227-1c3628e74d0f // indirect
	github.com/go-logfmt/logfmt v0.6.0 // indirect
	github.com/lucasb-eyer/go-colorful v1.2.0 // indirect
	github.com/mattn/go-isatty v0.0.20 // indirect
	github.com/mattn/go-localereader v0.0.1 // indirect
	github.com/mattn/go-runewidth v0.0.16 // indirect
	github.com/muesli/ansi v0.0.0-20230316100256-276c6243b2f6 // indirect
	github.com/muesli/cancelreader v0.2.2 // indirect
	github.com/rivo/uniseg v0.4.7 // indirect
	github.com/sahilm/fuzzy v0.1.1 // indirect
	github.com/xo/terminfo v0.0.0-20220910002029-abceb7e1c41e // indirect
	golang.org/x/crypto v0.26.0 // indirect
	golang.org/x/sync v0.9.0 // indirect
	golang.org/x/sys v0.27.0 // indirect
	golang.org/x/text v0.19.0 // indirect
)
